\relax 
\providecommand\hyper@newdestlabel[2]{}
\citation{iso95}
\@writefile{toc}{\contentsline {chapter}{\numberline {5}\unhbox \voidb@x \hbox {{\sf  {tu}}Prolog}{} Libraries}{56}{chapter.5}}
\@writefile{lof}{\addvspace {10\p@ }}
\@writefile{lot}{\addvspace {10\p@ }}
\newlabel{ch:standard-libraries}{{5}{56}{\tuprolog {} Libraries}{chapter.5}{}}
\@writefile{toc}{\contentsline {section}{\numberline {5.1}BasicLibrary}{58}{section.5.1}}
\newlabel{sec:basic-library}{{5.1}{58}{BasicLibrary}{section.5.1}{}}
\@writefile{toc}{\contentsline {subsection}{\numberline {5.1.1}Predicates}{58}{subsection.5.1.1}}
\@writefile{toc}{\contentsline {subsubsection}{\numberline {5.1.1.1}Type Testing}{58}{subsubsection.5.1.1.1}}
\@writefile{toc}{\contentsline {subsubsection}{\numberline {5.1.1.2}Term Creation, Decomposition and Unification}{59}{subsubsection.5.1.1.2}}
\citation{ss94}
\@writefile{toc}{\contentsline {subsubsection}{\numberline {5.1.1.3}Occurs Check}{61}{subsubsection.5.1.1.3}}
\@writefile{toc}{\contentsline {subsubsection}{\numberline {5.1.1.4}Expression and Term Comparison}{62}{subsubsection.5.1.1.4}}
\@writefile{toc}{\contentsline {subsubsection}{\numberline {5.1.1.5}Finding Solutions}{62}{subsubsection.5.1.1.5}}
\@writefile{toc}{\contentsline {subsubsection}{\numberline {5.1.1.6}Control Management}{63}{subsubsection.5.1.1.6}}
\citation{iso95}
\@writefile{toc}{\contentsline {subsubsection}{\numberline {5.1.1.7}Clause Retrieval, Creation and Destruction}{64}{subsubsection.5.1.1.7}}
\@writefile{toc}{\contentsline {subsubsection}{\numberline {5.1.1.8}Operator Management}{65}{subsubsection.5.1.1.8}}
\@writefile{toc}{\contentsline {subsubsection}{\numberline {5.1.1.9}Flag Management}{65}{subsubsection.5.1.1.9}}
\@writefile{toc}{\contentsline {subsubsection}{\numberline {5.1.1.10}Actions on Theories and Engines}{66}{subsubsection.5.1.1.10}}
\@writefile{toc}{\contentsline {subsubsection}{\numberline {5.1.1.11}Spy Events}{68}{subsubsection.5.1.1.11}}
\@writefile{toc}{\contentsline {subsubsection}{\numberline {5.1.1.12}Auxiliary predicates}{68}{subsubsection.5.1.1.12}}
\@writefile{toc}{\contentsline {subsection}{\numberline {5.1.2}Functors}{70}{subsection.5.1.2}}
\@writefile{toc}{\contentsline {subsection}{\numberline {5.1.3}Operators}{70}{subsection.5.1.3}}
\@writefile{lot}{\contentsline {table}{\numberline {5.1}{\ignorespaces BasicLibrary operators.\relax }}{72}{table.caption.32}}
\newlabel{tab:basiclibrary-operators}{{5.1}{72}{BasicLibrary operators.\relax }{table.caption.32}{}}
\@writefile{toc}{\contentsline {section}{\numberline {5.2}ISOLibrary}{73}{section.5.2}}
\newlabel{sec:iso-library}{{5.2}{73}{ISOLibrary}{section.5.2}{}}
\@writefile{toc}{\contentsline {subsection}{\numberline {5.2.1}Predicates}{73}{subsection.5.2.1}}
\@writefile{toc}{\contentsline {subsubsection}{\numberline {5.2.1.1}Type Testing}{73}{subsubsection.5.2.1.1}}
\@writefile{toc}{\contentsline {subsubsection}{\numberline {5.2.1.2}Atoms Processing}{73}{subsubsection.5.2.1.2}}
\@writefile{toc}{\contentsline {subsection}{\numberline {5.2.2}Functors}{75}{subsection.5.2.2}}
\@writefile{toc}{\contentsline {subsection}{\numberline {5.2.3}Operators}{76}{subsection.5.2.3}}
\@writefile{lot}{\contentsline {table}{\numberline {5.2}{\ignorespaces ISOLibrary operators.\relax }}{76}{table.caption.33}}
\newlabel{tab:isolibrary-operators}{{5.2}{76}{ISOLibrary operators.\relax }{table.caption.33}{}}
\@writefile{toc}{\contentsline {subsection}{\numberline {5.2.4}Flags}{76}{subsection.5.2.4}}
\@writefile{lot}{\contentsline {table}{\numberline {5.3}{\ignorespaces ISOLibrary flags. Any tentative to modify unmodifiable flags will result into a \texttt  {permission\_error} exception.\relax }}{76}{table.caption.34}}
\newlabel{tab:isolibrary-flags}{{5.3}{76}{ISOLibrary flags. Any tentative to modify unmodifiable flags will result into a \texttt {permission\_error} exception.\relax }{table.caption.34}{}}
\@writefile{toc}{\contentsline {section}{\numberline {5.3}IOLibrary}{77}{section.5.3}}
\newlabel{sec:io-library}{{5.3}{77}{IOLibrary}{section.5.3}{}}
\@writefile{toc}{\contentsline {subsection}{\numberline {5.3.1}Predicates}{77}{subsection.5.3.1}}
\@writefile{toc}{\contentsline {subsubsection}{\numberline {5.3.1.1}General I/O}{77}{subsubsection.5.3.1.1}}
\@writefile{toc}{\contentsline {subsubsection}{\numberline {5.3.1.2}Helper Predicates}{82}{subsubsection.5.3.1.2}}
\@writefile{toc}{\contentsline {subsubsection}{\numberline {5.3.1.3}Random Generation of Numbers}{84}{subsubsection.5.3.1.3}}
\@writefile{toc}{\contentsline {section}{\numberline {5.4}ThreadLibrary}{84}{section.5.4}}
\newlabel{sec:thread-library}{{5.4}{84}{ThreadLibrary}{section.5.4}{}}
\@writefile{toc}{\contentsline {subsection}{\numberline {5.4.1}Predicates}{85}{subsection.5.4.1}}
\@writefile{toc}{\contentsline {subsubsection}{\numberline {5.4.1.1}Creating and deleting threads}{85}{subsubsection.5.4.1.1}}
\newlabel{box:thread-internals}{{\caption@xref {box:thread-internals}{ on input line 1106}}{86}{ThreadLibrary}{Item.22}{}}
\@writefile{toc}{\contentsline {subsubsection}{\numberline {5.4.1.2}Inter-thread communication via queues}{88}{subsubsection.5.4.1.2}}
\@writefile{toc}{\contentsline {subsubsection}{\numberline {5.4.1.3}Thread synchronization via mutual exclusion}{90}{subsubsection.5.4.1.3}}
\@writefile{toc}{\contentsline {subsection}{\numberline {5.4.2}Examples}{92}{subsection.5.4.2}}
\newlabel{ssec:threadlibrary-examples}{{5.4.2}{92}{Examples}{subsection.5.4.2}{}}
\@writefile{toc}{\contentsline {subsubsection}{\numberline {5.4.2.1}Factorial of two numbers}{93}{subsubsection.5.4.2.1}}
\@writefile{toc}{\contentsline {subsubsection}{\numberline {5.4.2.2}Father and child communicating via a public queue}{93}{subsubsection.5.4.2.2}}
\@writefile{toc}{\contentsline {subsubsection}{\numberline {5.4.2.3}Father and children communicating via a private queue}{94}{subsubsection.5.4.2.3}}
\@writefile{lof}{\contentsline {figure}{\numberline {5.1}{\ignorespaces Execution flows in the third example.\relax }}{95}{figure.caption.36}}
\newlabel{fig:thread-example}{{5.1}{95}{Execution flows in the third example.\relax }{figure.caption.36}{}}
\@writefile{toc}{\contentsline {subsubsection}{\numberline {5.4.2.4}Synchronizing thread interactions}{96}{subsubsection.5.4.2.4}}
\@writefile{lof}{\contentsline {figure}{\numberline {5.2}{\ignorespaces Execution flows in the mutex example.\relax }}{97}{figure.caption.37}}
\newlabel{fig:thread-exampleMutex}{{5.2}{97}{Execution flows in the mutex example.\relax }{figure.caption.37}{}}
\citation{bra00}
\@writefile{toc}{\contentsline {subsubsection}{\numberline {5.4.2.5}Flattening and manipulating lists}{98}{subsubsection.5.4.2.5}}
\@writefile{toc}{\contentsline {section}{\numberline {5.5}DCGLibrary}{98}{section.5.5}}
\newlabel{sec:dgc-library}{{5.5}{98}{DCGLibrary}{section.5.5}{}}
\@writefile{lot}{\contentsline {table}{\numberline {5.4}{\ignorespaces The sequential version of the list manipulation program.  Query: \texttt  {?- start([[[2,2],2,2,1],[4,[3],2],[9,8,9,2]], 3, 2).}\relax }}{99}{table.caption.38}}
\newlabel{tab:thread-exampleFlatList}{{5.4}{99}{The sequential version of the list manipulation program.\\ Query: \texttt {?- start([[[2,2],2,2,1],[4,[3],2],[9,8,9,2]], 3, 2).}\relax }{table.caption.38}{}}
\@writefile{lot}{\contentsline {table}{\numberline {5.5}{\ignorespaces The sequential version (top) and the concurrent (bottom) version of the list manipulation program.  Query: \texttt  {?- start([[[2,2],2,2,1],[4,[3],2],[9,8,9,2]], 3, 2).}\relax }}{100}{table.caption.39}}
\newlabel{tab:thread-exampleFlatListConcurrent}{{5.5}{100}{The sequential version (top) and the concurrent (bottom) version of the list manipulation program.\\ Query: \texttt {?- start([[[2,2],2,2,1],[4,[3],2],[9,8,9,2]], 3, 2).}\relax }{table.caption.39}{}}
\@writefile{lof}{\contentsline {figure}{\numberline {5.3}{\ignorespaces The DCG Library example in the \unhbox \voidb@x \hbox {{\sf  {tu}}Prolog}{} GUI (note the explicit library loading directive).\relax }}{101}{figure.caption.40}}
\newlabel{fig:dcg-example}{{5.3}{101}{The DCG Library example in the \tuprolog {} GUI (note the explicit library loading directive).\relax }{figure.caption.40}{}}
\@writefile{toc}{\contentsline {subsection}{\numberline {5.5.1}Predicates}{101}{subsection.5.5.1}}
\@writefile{toc}{\contentsline {subsection}{\numberline {5.5.2}Operators}{102}{subsection.5.5.2}}
\@writefile{lot}{\contentsline {table}{\numberline {5.6}{\ignorespaces DCGLibrary operators.\relax }}{103}{table.caption.41}}
\newlabel{tab:dcglibrary-operators}{{5.6}{103}{DCGLibrary operators.\relax }{table.caption.41}{}}
\@writefile{toc}{\contentsline {section}{\numberline {5.6}ISOIOLibrary}{103}{section.5.6}}
\newlabel{sec:isoio-library}{{5.6}{103}{ISOIOLibrary}{section.5.6}{}}
\@writefile{lof}{\contentsline {figure}{\numberline {5.4}{\ignorespaces Comparison between the I/O predicates provided by IOLibrary and the ISO standard specification. Bold style indicates missing predicates, plain style indicates existing functionalities to be refactored, improved, or be provided with a different signature to be ISO-compliant.\relax }}{104}{figure.caption.42}}
\newlabel{fig:isoiolibrary-table}{{5.4}{104}{Comparison between the I/O predicates provided by IOLibrary and the ISO standard specification. Bold style indicates missing predicates, plain style indicates existing functionalities to be refactored, improved, or be provided with a different signature to be ISO-compliant.\relax }{figure.caption.42}{}}
\@writefile{toc}{\contentsline {subsection}{\numberline {5.6.1}Predicates}{105}{subsection.5.6.1}}
\@writefile{toc}{\contentsline {subsection}{\numberline {5.6.2}Options}{114}{subsection.5.6.2}}
\@writefile{lot}{\contentsline {table}{\numberline {5.7}{\ignorespaces Term writing rules: canonical form and operator notation.\relax }}{115}{table.caption.43}}
\newlabel{tab:isoiolibrary-write-terms}{{5.7}{115}{Term writing rules: canonical form and operator notation.\relax }{table.caption.43}{}}
\@writefile{lot}{\contentsline {table}{\numberline {5.8}{\ignorespaces The default configuration of the standard I/O streams.\relax }}{117}{table.caption.44}}
\newlabel{tab:isoiolibrary-user-streams}{{5.8}{117}{The default configuration of the standard I/O streams.\relax }{table.caption.44}{}}
\@writefile{toc}{\contentsline {section}{\numberline {5.7}SocketLibrary}{118}{section.5.7}}
\newlabel{sec:socket-library}{{5.7}{118}{SocketLibrary}{section.5.7}{}}
\@writefile{toc}{\contentsline {subsection}{\numberline {5.7.1}Predicates}{119}{subsection.5.7.1}}
\@writefile{toc}{\contentsline {subsection}{\numberline {5.7.2}Operators}{123}{subsection.5.7.2}}
\@writefile{toc}{\contentsline {subsection}{\numberline {5.7.3}Use from the Java side: term hierarchy extension}{123}{subsection.5.7.3}}
\@setckpt{tuprolog-libraries}{
\setcounter{page}{125}
\setcounter{equation}{0}
\setcounter{enumi}{4}
\setcounter{enumii}{0}
\setcounter{enumiii}{0}
\setcounter{enumiv}{0}
\setcounter{footnote}{4}
\setcounter{mpfootnote}{0}
\setcounter{part}{0}
\setcounter{chapter}{5}
\setcounter{section}{7}
\setcounter{subsection}{3}
\setcounter{subsubsection}{0}
\setcounter{paragraph}{0}
\setcounter{subparagraph}{0}
\setcounter{figure}{4}
\setcounter{table}{8}
\setcounter{Item}{22}
\setcounter{Hfootnote}{12}
\setcounter{bookmark@seq@number}{78}
\setcounter{FancyVerbLine}{15}
\setcounter{ContinuedFloat}{0}
\setcounter{section@level}{2}
}
